%YAML 1.1
%TAG !u! tag:unity3d.com,2011:
--- !u!74 &7400000
AnimationClip:
  m_ObjectHideFlags: 0
  m_CorrespondingSourceObject: {fileID: 0}
  m_PrefabInstance: {fileID: 0}
  m_PrefabAsset: {fileID: 0}
  m_Name: JumpAnimation
  serializedVersion: 6
  m_Legacy: 0
  m_Compressed: 0
  m_UseHighQualityCurve: 1
  m_RotationCurves: []
  m_CompressedRotationCurves: []
  m_EulerCurves: []
  m_PositionCurves: []
  m_ScaleCurves: []
  m_FloatCurves: []
  m_PPtrCurves:
  - curve:
    - time: 0
      value: {fileID: 21300000, guid: cdfe87c930702e94aacf73cad8999f06, type: 3}
    - time: 0.05
      value: {fileID: 21300000, guid: 6870e6beaf0021543931cd1109272f82, type: 3}
    - time: 0.11666667
      value: {fileID: 21300000, guid: ff5063c2632c4a640bbd2f6e44dd1881, type: 3}
    - time: 0.16666667
      value: {fileID: 21300000, guid: 0aec65c669cc4a343b966985d96a0f28, type: 3}
    - time: 0.2
      value: {fileID: 21300000, guid: 25836ee932f2fc340ad856a625849a0f, type: 3}
    - time: 0.25
      value: {fileID: 21300000, guid: f039c86cdee90784fbc8cb0b05137eef, type: 3}
    - time: 0.31666666
      value: {fileID: 21300000, guid: 0ae0b50677486a846bc3d37a2afddce4, type: 3}
    - time: 0.36666667
      value: {fileID: 21300000, guid: eb59c5e878d629948a4197fdc72b0afe, type: 3}
    attribute: m_Sprite
    path: 
    classID: 212
    script: {fileID: 0}
  m_SampleRate: 60
  m_WrapMode: 0
  m_Bounds:
    m_Center: {x: 0, y: 0, z: 0}
    m_Extent: {x: 0, y: 0, z: 0}
  m_ClipBindingConstant:
    genericBindings:
    - serializedVersion: 2
      path: 0
      attribute: 0
      script: {fileID: 0}
      typeID: 212
      customType: 23
      isPPtrCurve: 1
    pptrCurveMapping:
    - {fileID: 21300000, guid: cdfe87c930702e94aacf73cad8999f06, type: 3}
    - {fileID: 21300000, guid: 6870e6beaf0021543931cd1109272f82, type: 3}
    - {fileID: 21300000, guid: ff5063c2632c4a640bbd2f6e44dd1881, type: 3}
    - {fileID: 21300000, guid: 0aec65c669cc4a343b966985d96a0f28, type: 3}
    - {fileID: 21300000, guid: 25836ee932f2fc340ad856a625849a0f, type: 3}
    - {fileID: 21300000, guid: f039c86cdee90784fbc8cb0b05137eef, type: 3}
    - {fileID: 21300000, guid: 0ae0b50677486a846bc3d37a2afddce4, type: 3}
    - {fileID: 21300000, guid: eb59c5e878d629948a4197fdc72b0afe, type: 3}
  m_AnimationClipSettings:
    serializedVersion: 2
    m_AdditiveReferencePoseClip: {fileID: 0}
    m_AdditiveReferencePoseTime: 0
    m_StartTime: 0
    m_StopTime: 0.38333336
    m_OrientationOffsetY: 0
    m_Level: 0
    m_CycleOffset: 0
    m_HasAdditiveReferencePose: 0
    m_LoopTime: 1
    m_LoopBlend: 0
    m_LoopBlendOrientation: 0
    m_LoopBlendPositionY: 0
    m_LoopBlendPositionXZ: 0
    m_KeepOriginalOrientation: 0
    m_KeepOriginalPositionY: 1
    m_KeepOriginalPositionXZ: 0
    m_HeightFromFeet: 0
    m_Mirror: 0
  m_EditorCurves: []
  m_EulerEditorCurves: []
  m_HasGenericRootTransform: 0
  m_HasMotionFloatCurves: 0
  m_Events: []
